{
  "siteName": "ノーナクシンムエタイジム",
  "siteRootUrl": "http://nornaksin-tokyo.net/",
  "ogImageUrl": "http://nornaksin-tokyo.net/images/ogimage.png",
  "fbAppId": "",
  "twitterSite": "",
  "googleAnalyticsId": ""
}
